…
all_data %>% 
  count(income, sort = TRUE)

## # A tibble: 2 x 2
##   income     n
##   <chr>  <int>
## 1 <=50K  37155
## 2 >50K   11687

Native Country

all_data %>% 
  count(native_country, sort = TRUE)

## # A tibble: 42 x 2
##    native_country     n
##    <chr>          <int>
##  1 United-States  43832
##  2 Mexico           951
##  3 ?                857
##  4 Philippines      295
##  5 Germany          206
##  6 Puerto-Rico      184
##  7 Canada           182
##  8 El-Salvador      155
##  9 India            151
## 10 Cuba             138
## # â€¦ with 32 more rows

country_table <- all_data %>% 
  count(native_country, sort = TRUE) %>% 
  mutate(
    code = countrycode::countrycode(native_country,
                                    origin = "country.name",
                                    destination = "continent")
  )

## Warning in countrycode::countrycode(native_country, origin = "country.name", : Some values were not matched unambiguously: ?, Columbia, England, Hong, Scotland, South, Yugoslavia

country_table

## # A tibble: 42 x 3
##    native_country     n code    
##    <chr>          <int> <chr>   
##  1 United-States  43832 Americas
##  2 Mexico           951 Americas
##  3 ?                857 <NA>    
##  4 Philippines      295 Asia    
##  5 Germany          206 Europe  
##  6 Puerto-Rico      184 Americas
##  7 Canada           182 Americas
##  8 El-Salvador      155 Americas
##  9 India            151 Asia    
## 10 Cuba             138 Americas
## # â€¦ with 32 more rows
country_table %>% 
  mutate(
    code2 = case_when(
      native_country == "?" ~ "Unknown",
      native_country == "South" ~ "Unknown",
      native_country == "England" ~ "Europe",
      native_country == "Columbia" ~ "Americas",
      native_country == "Hong" ~ "Asia",
      native_country == "Yugoslavia" ~ "Europe",
      native_country == "Scotland" ~ "Europe",
      TRUE ~ code
    )
  )

## # A tibble: 42 x 4
##    native_country     n code     code2   
##    <chr>          <int> <chr>    <chr>   
##  1 United-States  43832 Americas Americas
##  2 Mexico           951 Americas Americas
##  3 ?                857 <NA>     Unknown 
##  4 Philippines      295 Asia     Asia    
##  5 Germany          206 Europe   Europe  
##  6 Puerto-Rico      184 Americas Americas
##  7 Canada           182 Americas Americas
##  8 El-Salvador      155 Americas Americas
##  9 India            151 Asia     Asia    
## 10 Cuba             138 Americas Americas
## # â€¦ with 32 more rows
…
