…
name

As we saw with skim there are a lot of unique names. Lets take a peak at the data.

all_data %>% 
  count(name, sort = TRUE)

## # A tibble: 1,307 x 2
##    name                                      n
##    <fct>                                 <int>
##  1 Connolly, Miss. Kate                      2
##  2 Kelly, Mr. James                          2
##  3 Abbing, Mr. Anthony                       1
##  4 Abbott, Master. Eugene Joseph             1
##  5 Abbott, Mr. Rossmore Edward               1
##  6 Abbott, Mrs. Stanton (Rosa Hunt)          1
##  7 Abelseth, Miss. Karen Marie               1
##  8 Abelseth, Mr. Olaus Jorgensen             1
##  9 Abelson, Mr. Samuel                       1
## 10 Abelson, Mrs. Samuel (Hannah Wizosky)     1
## # … with 1,297 more rows
…
ticket_number

ticket_count <- all_data %>% 
  count(ticket_number, name = "ticket_group_size", sort = TRUE)

ticket_count

## # A tibble: 929 x 2
##    ticket_number ticket_group_size
##    <fct>                     <int>
##  1 CA. 2343                     11
##  2 1601                          8
##  3 CA 2144                       8
##  4 3101295                       7
##  5 347077                        7
##  6 347082                        7
##  7 PC 17608                      7
##  8 S.O.C. 14879                  7
##  9 113781                        6
## 10 19950                         6
## # … with 919 more rows
…
cabin_number

all_data %>% 
  count(cabin_number, sort = TRUE)

## Warning: Factor `cabin_number` contains implicit NA, consider using
## `forcats::fct_explicit_na`

## # A tibble: 187 x 2
##    cabin_number        n
##    <fct>           <int>
##  1 <NA>             1014
##  2 C23 C25 C27         6
##  3 B57 B59 B63 B66     5
##  4 G6                  5
##  5 B96 B98             4
##  6 C22 C26             4
##  7 C78                 4
##  8 D                   4
##  9 F2                  4
## 10 F33                 4
## # … with 177 more rows
…
Submit Data to Kaggle

pred <- predict(rpart_fit, main_test) %>% 
  bind_cols(select(test_raw, passenger_id))

pred

## # A tibble: 418 x 2
##    .pred_class passenger_id
##    <fct>              <dbl>
##  1 no                   892
##  2 no                   893
##  3 no                   894
##  4 no                   895
##  5 yes                  896
##  6 no                   897
##  7 no                   898
##  8 no                   899
##  9 yes                  900
## 10 no                   901
## # … with 408 more rows

data_to_submit <- pred %>% 
  select(PassengerId = passenger_id, Survived = .pred_class) %>% 
  mutate(Survived = as.numeric(Survived) - 1)

data_to_submit

## # A tibble: 418 x 2
##    PassengerId Survived
##          <dbl>    <dbl>
##  1         892        0
##  2         893        0
##  3         894        0
##  4         895        0
##  5         896        1
##  6         897        0
##  7         898        0
##  8         899        0
##  9         900        1
## 10         901        0
## # … with 408 more rows
…
Submit Data to Kaggle

pred <- predict(ranger_fit, main_test) %>% 
  bind_cols(select(test_raw, passenger_id))

pred

## # A tibble: 418 x 2
##    .pred_class passenger_id
##    <fct>              <dbl>
##  1 no                   892
##  2 no                   893
##  3 no                   894
##  4 no                   895
##  5 yes                  896
##  6 no                   897
##  7 no                   898
##  8 no                   899
##  9 yes                  900
## 10 no                   901
## # … with 408 more rows

data_to_submit <- pred %>% 
  select(PassengerId = passenger_id, Survived = .pred_class) %>% 
  mutate(Survived = as.numeric(Survived) - 1)

data_to_submit

## # A tibble: 418 x 2
##    PassengerId Survived
##          <dbl>    <dbl>
##  1         892        0
##  2         893        0
##  3         894        0
##  4         895        0
##  5         896        1
##  6         897        0
##  7         898        0
##  8         899        0
##  9         900        1
## 10         901        0
## # … with 408 more rows
…
Submit Data to Kaggle

pred <- predict(xgb_fit, main_test) %>% 
  bind_cols(select(test_raw, passenger_id))

pred

## # A tibble: 418 x 2
##    .pred_class passenger_id
##    <fct>              <dbl>
##  1 no                   892
##  2 no                   893
##  3 no                   894
##  4 no                   895
##  5 no                   896
##  6 no                   897
##  7 no                   898
##  8 no                   899
##  9 no                   900
## 10 no                   901
## # … with 408 more rows

data_to_submit <- pred %>% 
  select(PassengerId = passenger_id, Survived = .pred_class) %>% 
  mutate(Survived = as.numeric(Survived) - 1)

data_to_submit

## # A tibble: 418 x 2
##    PassengerId Survived
##          <dbl>    <dbl>
##  1         892        0
##  2         893        0
##  3         894        0
##  4         895        0
##  5         896        0
##  6         897        0
##  7         898        0
##  8         899        0
##  9         900        0
## 10         901        0
## # … with 408 more rows
…
